…
# By article type
rt_summary(rt_demo, by = "type")
#> # A tibble: 21 × 11
#>    type         indicator label n_articles n_detected percent conf_low conf_high
#>    <chr>        <chr>     <chr>      <int>      <int>   <dbl>    <dbl>     <dbl>
#>  1 research-ar… is_coi_p… Conf…        854        598   70.0     66.9       73.0
#>  2 research-ar… is_fund_… Fund…        854        680   79.6     76.8       82.2
#>  3 research-ar… is_regis… Prot…        854        219   25.6     22.8       28.7
#>  4 research-ar… is_open_… Data…        854        138   16.2     13.8       18.8
#>  5 research-ar… is_open_… Code…        854         77    9.02     7.27      11.1
#>  6 research-ar… is_novel… Nove…        854        425   49.8     46.4       53.1
#>  7 research-ar… is_repli… Repl…        854         73    8.55     6.85      10.6
#>  8 review-arti… is_coi_p… Conf…        227        155   68.3     62.0       74.0
#>  9 review-arti… is_fund_… Fund…        227        172   75.8     69.8       80.9
#> 10 review-arti… is_regis… Prot…        227         69   30.4     24.8       36.7
#> # ℹ 11 more rows
#> # ℹ 3 more variables: adj_percent <dbl>, adj_low <dbl>, adj_high <dbl>
```
